<?xml version="1.0" encoding="utf-8"?>
<svg xmlns="http://www.w3.org/2000/svg"
	xmlns:xlink="http://www.w3.org/1999/xlink"
	width="140px" height="65px" viewBox="0 0 140 65">
<style type="text/css"><![CDATA[
.style0 {
  font-size: 14px;
  font-family: "PTSans-Bold";
  fill: rgb(41,41,41);
  text-transform: uppercase;
}
]]></style>
<filter filterUnits="objectBoundingBox" x="0.00" y="0.00" width="100.00" height="100.00" id="filter0">
<feFlood flood-color="rgb(255,255,255)" result="coFloodOut1"/>
<feComposite in="coFloodOut1" in2="SourceAlpha" operator="in" result="coOverlay1"/>
<feBlend in="coOverlay1" in2="SourceGraphic" mode="normal" result="colorOverlay1"/>
</filter>
<path fillRule="evenodd" d="M 118.47 37.94C 118.47 37.94 106.34 37.96 106.34 37.96 106.34 37.96 85.69 0.08 85.69 0.08 85.69 0.08 98.61 0.06 98.61 0.06 98.61 0.06 112.35 26.9 112.35 26.9 112.35 26.9 126.26 0.02 126.26 0.02 126.26 0.02 139 0 139 0 139 0 118.47 37.94 118.47 37.94ZM 69.49 38C 69.49 38 51.9 38 51.9 38 51.9 38 42.46 28.3 42.46 28.3 42.46 28.3 42.46 0 42.46 0 42.46 0 69.5 0 69.5 0 80.68-0.01 89.76 8.5 89.77 18.95 89.79 29.41 80.67 37.98 69.49 38ZM 64.04 9.94C 64.04 9.94 54.43 9.94 54.43 9.94 54.43 9.94 54.4 27.83 54.4 27.83 54.4 27.83 63.93 27.83 63.93 27.83 63.93 27.83 64.74 27.83 64.74 27.83 73.49 27.82 77.53 26.18 77.3 18.58 77.04 13.07 74.28 9.82 64.04 9.94ZM 46.64 37.94C 46.64 37.94 29.89 37.96 29.89 37.96 29.89 37.96 13.25 20.26 13.25 20.26 13.25 20.26 13.33 37.94 13.33 37.94 13.33 37.94 1.05 37.95 1.05 37.95 1.05 37.95 1 0.1 1 0.1 1 0.1 13.16 0.08 13.16 0.08 13.16 0.08 13.18 16.59 13.18 16.59 13.18 16.59 25.2 0 25.2 0 25.2 0 38.74 0.05 38.74 0.05 38.74 0.05 26.63 17.38 26.63 17.38 26.63 17.38 46.64 37.94 46.64 37.94Z" fill="rgb(255,255,255)"/><text transform="translate(-0.03,55.00)" class="style0" filter="url(#filter0)"><tspan y="9.94" x="0.00 9.77 19.46 26.98 34.43 42.43 52.12 59.57 67.09 71.95 83.76 92.89 99.51 108.64 116.09 125.86" fill="rgb(41,41,41)">Интернет-магазин</tspan></text></svg>