<?xml version="1.0" encoding="utf-8"?>
<svg xmlns="http://www.w3.org/2000/svg"
	xmlns:xlink="http://www.w3.org/1999/xlink"
	width="17px" height="16px" viewBox="0 0 17 16">
<g><path fillRule="evenodd" d="M 11 14C 11.55 14 12 14.45 12 15 12 15.55 11.55 16 11 16 11 16 3 16 3 16 1.34 16-0 14.66-0 13-0 13-0 3-0 3-0 1.34 1.34-0 3-0 3-0 11-0 11-0 11.55-0 12 0.45 12 1 12 1.55 11.55 2 11 2 11 2 3 2 3 2 2.45 2 2 2.45 2 3 2 3 2 13 2 13 2 13.55 2.45 14 3 14 3 14 11 14 11 14" fill="rgb(255,255,255)"/><path fillRule="evenodd" d="M 4.85 9C 4.85 9 12.15 9 12.15 9 12.7 9 13.15 8.55 13.15 8 13.15 7.45 12.7 7 12.15 7 12.15 7 4.85 7 4.85 7 4.3 7 3.85 7.45 3.85 8 3.85 8.55 4.3 9 4.85 9" fill="rgb(255,255,255)"/><path fillRule="evenodd" d="M 11.29 5.71C 11.29 5.71 13.59 8 13.59 8 13.59 8 11.29 10.29 11.29 10.29 10.9 10.68 10.9 11.32 11.29 11.71 11.68 12.1 12.32 12.1 12.71 11.71 12.71 11.71 16.41 8 16.41 8 16.41 8 12.71 4.29 12.71 4.29 12.32 3.9 11.68 3.9 11.29 4.29 10.9 4.68 10.9 5.32 11.29 5.71 11.29 5.71 11.29 5.71 11.29 5.71Z" fill="rgb(255,255,255)"/></g></svg>