<?xml version="1.0" encoding="utf-8"?>
<svg xmlns="http://www.w3.org/2000/svg"
	xmlns:xlink="http://www.w3.org/1999/xlink"
	width="13px" height="16px" viewBox="0 0 13 16">
<filter filterUnits="objectBoundingBox" x="0.00" y="0.00" width="100.00" height="100.00" id="filter0">
<feFlood flood-color="rgb(255,255,255)" result="coFloodOut1"/>
<feComposite in="coFloodOut1" in2="SourceAlpha" operator="in" result="coOverlay1"/>
<feBlend in="coOverlay1" in2="SourceGraphic" mode="normal" result="colorOverlay1"/>
</filter>
<g transform="matrix(0.87 0.00 0.00 0.89 0.00 0.00)" filter="url(#filter0)"><path fillRule="evenodd" d="M 7.52 15.87C 8.95 15.07 13 11.79 13 7.37 13 4.41 10.53 2 7.5 2 4.47 2 2 4.41 2 7.37 2 11.67 6.09 15.03 7.52 15.87M 7.5 18C 6.49 18-0 13.49-0 7.37-0 3.3 3.36-0 7.5-0 11.64-0 15 3.3 15 7.37 15 13.68 8.58 18 7.5 18 7.5 18 7.5 18 7.5 18Z" fill="rgb(255,27,65)"/><circle cx="7.50" cy="7.50" r="1.50" fill="rgb(255,27,65)"/></g></svg>