<?xml version="1.0" encoding="utf-8"?>
<svg xmlns="http://www.w3.org/2000/svg"
	xmlns:xlink="http://www.w3.org/1999/xlink"
	width="16px" height="16px" viewBox="0 0 16 16">
<path fillRule="evenodd" d="M 13.41 14C 13.41 14 9.38 12.27 9.38 12.27 9.38 12.27 8.01 11.69 8.01 11.69 8.01 11.69 6.65 12.26 6.65 12.26 6.65 12.26 2.58 14 2.58 14 2.58 14 13.41 14 13.41 14M 8.01 9.58C 8.01 9.58 8.93 8.86 8.93 8.86 9.67 8.28 10.02 6.81 10.02 6 10.02 6 10.02 3.5 10.02 3.5 10.02 3 9.15 2 8 2 6.85 2 5.97 3 5.97 3.5 5.97 3.5 5.97 6 5.97 6 5.97 6.7 6.36 8.25 7.12 8.86 7.12 8.86 8.01 9.58 8.01 9.58M 14.99 16C 14.99 16 1 16 1 16 0.45 16 0 15.55 0 15 0 15 0 13.5 0 13.5 0 12.94 1 12.5 1 12.5 1 12.5 5.87 10.42 5.87 10.42 4.47 9.3 3.97 7.09 3.97 6 3.97 6 3.97 3.5 3.97 3.5 3.97 1.85 5.79 0 8 0 10.2 0 12.02 1.85 12.02 3.5 12.02 3.5 12.02 6 12.02 6 12.02 7.2 11.55 9.34 10.17 10.43 10.17 10.43 14.99 12.5 14.99 12.5 14.99 12.5 15.99 12.91 15.99 13.5 15.99 13.5 15.99 15 15.99 15 15.99 15.55 15.55 16 14.99 16 14.99 16 14.99 16 14.99 16Z" fill="rgb(255,255,255)"/></svg>